{
    "product": {
      "current_page": 1,
      "data": [
        {
          "id": 504,
          "name": "DELAUNOIS CHANEZ CHAMPAGNE 75CL",
          "featured_img": "untitled-1-171413076346.png",
          "category_id": 12,
          "route": "delaunois-chanez-champagne-75cl",
          "sub_category_id": 0,
          "brand_id": 203,
          "created_at": "2024-04-05T12:33:46.000000Z",
          "price_variation": [
            {
              "id": 606,
              "product_id": 504,
              "price": 1456,
              "discount_price": 1300,
              "offer_price": 0
            }
          ],
          "category": {
            "id": 12,
            "name": "Champagne",
            "route": "champagne",
            "title": "",
            "description": "",
            "seo": {
              "meta_title": "Same Day Champagne Delivery in Abu Dhabi | Royal Spirit",
              "meta_description": "Order champagne delivery in Abu Dhabi and get it fast Choose from a curated selection of bubbly for any occasion delivered straight to your door",
              "schema_markup": "Champagne"
            }
          },
          "sub_category": null,
          "brands": {
            "id": 203,
            "name": "DELAUNOIS"
          }
        },
        {
          "id": 505,
          "name": "MOET & CHANDON CHAMPAGNE 75CL",
          "featured_img": "moet-171232426431.png",
          "category_id": 12,
          "route": "moet-&-chandon-champagne-75cl",
          "sub_category_id": 0,
          "brand_id": 204,
          "created_at": "2024-04-05T12:40:50.000000Z",
          "price_variation": [
            {
              "id": 607,
              "product_id": 505,
              "price": 334,
              "discount_price": 225,
              "offer_price": 0
            }
          ],
          "category": {
            "id": 12,
            "name": "Champagne",
            "route": "champagne",
            "title": "",
            "description": "",
            "seo": {
              "meta_title": "Same Day Champagne Delivery in Abu Dhabi | Royal Spirit",
              "meta_description": "Order champagne delivery in Abu Dhabi and get it fast Choose from a curated selection of bubbly for any occasion delivered straight to your door",
              "schema_markup": "Champagne"
            }
          },
          "sub_category": null,
          "brands": {
            "id": 204,
            "name": "MOET & CHANDON"
          }
        },
        {
          "id": 506,
          "name": "MOET & CHANDON IMPERIAL ICE 75CL",
          "featured_img": "12650-171232191458.png",
          "category_id": 12,
          "route": "moet-&-chandon-imperial-ice-75cl",
          "sub_category_id": 0,
          "brand_id": 204,
          "created_at": "2024-04-05T13:01:39.000000Z",
          "price_variation": [
            {
              "id": 609,
              "product_id": 506,
              "price": 330,
              "discount_price": 285,
              "offer_price": 0
            }
          ],
          "category": {
            "id": 12,
            "name": "Champagne",
            "route": "champagne",
            "title": "",
            "description": "",
            "seo": {
              "meta_title": "Same Day Champagne Delivery in Abu Dhabi | Royal Spirit",
              "meta_description": "Order champagne delivery in Abu Dhabi and get it fast Choose from a curated selection of bubbly for any occasion delivered straight to your door",
              "schema_markup": "Champagne"
            }
          },
          "sub_category": null,
          "brands": {
            "id": 204,
            "name": "MOET & CHANDON"
          }
        },
        {
          "id": 507,
          "name": "MOET & CHANDON ROSE 75Cl",
          "featured_img": "rose-171232259983.png",
          "category_id": 12,
          "route": "moet-&-chandon-rose-75cl",
          "sub_category_id": 0,
          "brand_id": 204,
          "created_at": "2024-04-05T13:10:35.000000Z",
          "price_variation": [
            {
              "id": 610,
              "product_id": 507,
              "price": 360,
              "discount_price": 340,
              "offer_price": 0
            }
          ],
          "category": {
            "id": 12,
            "name": "Champagne",
            "route": "champagne",
            "title": "",
            "description": "",
            "seo": {
              "meta_title": "Same Day Champagne Delivery in Abu Dhabi | Royal Spirit",
              "meta_description": "Order champagne delivery in Abu Dhabi and get it fast Choose from a curated selection of bubbly for any occasion delivered straight to your door",
              "schema_markup": "Champagne"
            }
          },
          "sub_category": null,
          "brands": {
            "id": 204,
            "name": "MOET & CHANDON"
          }
        },
        {
          "id": 508,
          "name": "VEUVE CLICQUOT 75CL",
          "featured_img": "untitled-1-171413067085.png",
          "category_id": 12,
          "route": "veuve-clicquot-75c",
          "sub_category_id": 0,
          "brand_id": 205,
          "created_at": "2024-04-05T13:21:35.000000Z",
          "price_variation": [
            {
              "id": 611,
              "product_id": 508,
              "price": 290,
              "discount_price": 280,
              "offer_price": 0
            }
          ],
          "category": {
            "id": 12,
            "name": "Champagne",
            "route": "champagne",
            "title": "",
            "description": "",
            "seo": {
              "meta_title": "Same Day Champagne Delivery in Abu Dhabi | Royal Spirit",
              "meta_description": "Order champagne delivery in Abu Dhabi and get it fast Choose from a curated selection of bubbly for any occasion delivered straight to your door",
              "schema_markup": "Champagne"
            }
          },
          "sub_category": null,
          "brands": {
            "id": 205,
            "name": "VEUVE CLICQUOT"
          }
        },
        {
          "id": 509,
          "name": "VEUVE CLICQUOT ROSE 75CL",
          "featured_img": "rose2-171232369548.png",
          "category_id": 12,
          "route": "veuve-clicquot-rose-75cl",
          "sub_category_id": 0,
          "brand_id": 205,
          "created_at": "2024-04-05T13:33:16.000000Z",
          "price_variation": [
            {
              "id": 612,
              "product_id": 509,
              "price": 375,
              "discount_price": 340,
              "offer_price": 0
            }
          ],
          "category": {
            "id": 12,
            "name": "Champagne",
            "route": "champagne",
            "title": "",
            "description": "",
            "seo": {
              "meta_title": "Same Day Champagne Delivery in Abu Dhabi | Royal Spirit",
              "meta_description": "Order champagne delivery in Abu Dhabi and get it fast Choose from a curated selection of bubbly for any occasion delivered straight to your door",
              "schema_markup": "Champagne"
            }
          },
          "sub_category": null,
          "brands": {
            "id": 205,
            "name": "VEUVE CLICQUOT"
          }
        },
        {
          "id": 888,
          "name": "G.GOBILLARD BLANC DE BLANCS  BRUT 75CL",
          "featured_img": "oqik4rc0treohphf7-vcog-pb-600x600-171775457643.png",
          "category_id": 12,
          "route": "g.gobillard-blanc-de-blancs-brut-75cl",
          "sub_category_id": 0,
          "brand_id": 372,
          "created_at": "2024-06-05T10:38:38.000000Z",
          "price_variation": [
            {
              "id": 1226,
              "product_id": 888,
              "price": 344,
              "discount_price": 239,
              "offer_price": 0
            }
          ],
          "category": {
            "id": 12,
            "name": "Champagne",
            "route": "champagne",
            "title": "",
            "description": "",
            "seo": {
              "meta_title": "Same Day Champagne Delivery in Abu Dhabi | Royal Spirit",
              "meta_description": "Order champagne delivery in Abu Dhabi and get it fast Choose from a curated selection of bubbly for any occasion delivered straight to your door",
              "schema_markup": "Champagne"
            }
          },
          "sub_category": null,
          "brands": {
            "id": 372,
            "name": "G.GOBILLARD"
          }
        },
        {
          "id": 889,
          "name": "G.GOBILLARD BRUT- L AUTHENTIQUE 75CL",
          "featured_img": "15455054266398-171775467259.webp",
          "category_id": 12,
          "route": "g.gobillard-brut-l-authentique-75cl",
          "sub_category_id": 0,
          "brand_id": 372,
          "created_at": "2024-06-05T10:42:07.000000Z",
          "price_variation": [
            {
              "id": 1227,
              "product_id": 889,
              "price": 546,
              "discount_price": 249,
              "offer_price": 0
            }
          ],
          "category": {
            "id": 12,
            "name": "Champagne",
            "route": "champagne",
            "title": "",
            "description": "",
            "seo": {
              "meta_title": "Same Day Champagne Delivery in Abu Dhabi | Royal Spirit",
              "meta_description": "Order champagne delivery in Abu Dhabi and get it fast Choose from a curated selection of bubbly for any occasion delivered straight to your door",
              "schema_markup": "Champagne"
            }
          },
          "sub_category": null,
          "brands": {
            "id": 372,
            "name": "G.GOBILLARD"
          }
        },
        {
          "id": 895,
          "name": "POLIGNAC VSOP SHIELD GB 70CL",
          "featured_img": "cognac-prince-hubert-de-polignac-vsop-171775558595.png",
          "category_id": 12,
          "route": "polignac-vsop-shield-gb-70cl",
          "sub_category_id": 0,
          "brand_id": 375,
          "created_at": "2024-06-05T11:24:08.000000Z",
          "price_variation": [],
          "category": {
            "id": 12,
            "name": "Champagne",
            "route": "champagne",
            "title": "",
            "description": "",
            "seo": {
              "meta_title": "Same Day Champagne Delivery in Abu Dhabi | Royal Spirit",
              "meta_description": "Order champagne delivery in Abu Dhabi and get it fast Choose from a curated selection of bubbly for any occasion delivered straight to your door",
              "schema_markup": "Champagne"
            }
          },
          "sub_category": null,
          "brands": {
            "id": 375,
            "name": "POLIGNAC"
          }
        },
        {
          "id": 896,
          "name": "POLIGNAC XO ROYAL GB 1LTR",
          "featured_img": "prince-hubert-de-polignac-xo-royal-cognac-vol-035l-alc-40-2-171775623862.png",
          "category_id": 12,
          "route": "polignac-xo-royal-gb-1ltr",
          "sub_category_id": 0,
          "brand_id": 375,
          "created_at": "2024-06-05T11:29:37.000000Z",
          "price_variation": [],
          "category": {
            "id": 12,
            "name": "Champagne",
            "route": "champagne",
            "title": "",
            "description": "",
            "seo": {
              "meta_title": "Same Day Champagne Delivery in Abu Dhabi | Royal Spirit",
              "meta_description": "Order champagne delivery in Abu Dhabi and get it fast Choose from a curated selection of bubbly for any occasion delivered straight to your door",
              "schema_markup": "Champagne"
            }
          },
          "sub_category": null,
          "brands": {
            "id": 375,
            "name": "POLIGNAC"
          }
        },
        {
          "id": 899,
          "name": "REMY MARTIN VSOP MINI -5CL",
          "featured_img": "remy-martin-vsop-200ml-171775702348.png",
          "category_id": 12,
          "route": "remy-martin-vsop-mini-5cl",
          "sub_category_id": 0,
          "brand_id": 50,
          "created_at": "2024-06-05T11:39:42.000000Z",
          "price_variation": [],
          "category": {
            "id": 12,
            "name": "Champagne",
            "route": "champagne",
            "title": "",
            "description": "",
            "seo": {
              "meta_title": "Same Day Champagne Delivery in Abu Dhabi | Royal Spirit",
              "meta_description": "Order champagne delivery in Abu Dhabi and get it fast Choose from a curated selection of bubbly for any occasion delivered straight to your door",
              "schema_markup": "Champagne"
            }
          },
          "sub_category": null,
          "brands": {
            "id": 50,
            "name": "Remy Martin"
          }
        },
        {
          "id": 919,
          "name": "PROSECCO DOC FRANZINI-75CL",
          "featured_img": "fidbtciv-proseccodocbrut-demeter-web-2-534x800-removebg-preview-1717761537100.webp",
          "category_id": 12,
          "route": "prosecco-doc-franzini-75cl",
          "sub_category_id": 0,
          "brand_id": 209,
          "created_at": "2024-06-06T07:07:17.000000Z",
          "price_variation": [
            {
              "id": 1179,
              "product_id": 919,
              "price": 50,
              "discount_price": 39,
              "offer_price": 0
            }
          ],
          "category": {
            "id": 12,
            "name": "Champagne",
            "route": "champagne",
            "title": "",
            "description": "",
            "seo": {
              "meta_title": "Same Day Champagne Delivery in Abu Dhabi | Royal Spirit",
              "meta_description": "Order champagne delivery in Abu Dhabi and get it fast Choose from a curated selection of bubbly for any occasion delivered straight to your door",
              "schema_markup": "Champagne"
            }
          },
          "sub_category": null,
          "brands": {
            "id": 209,
            "name": "Ita Prosecco"
          }
        }
      ],
      "first_page_url": "https://api.royalspirit.ae/public/v1/api/product-list/champagne?page=1",
      "from": 1,
      "last_page": 2,
      "last_page_url": "https://api.royalspirit.ae/public/v1/api/product-list/champagne?page=2",
      "links": [
        {
          "url": null,
          "label": "&laquo; Previous",
          "active": false
        },
        {
          "url": "https://api.royalspirit.ae/public/v1/api/product-list/champagne?page=1",
          "label": "1",
          "active": true
        },
        {
          "url": "https://api.royalspirit.ae/public/v1/api/product-list/champagne?page=2",
          "label": "2",
          "active": false
        },
        {
          "url": "https://api.royalspirit.ae/public/v1/api/product-list/champagne?page=2",
          "label": "Next &raquo;",
          "active": false
        }
      ],
      "next_page_url": "https://api.royalspirit.ae/public/v1/api/product-list/champagne?page=2",
      "path": "https://api.royalspirit.ae/public/v1/api/product-list/champagne",
      "per_page": 12,
      "prev_page_url": null,
      "to": 12,
      "total": 14
    },
    "faq": []
  }